<?xml version="1.0" encoding="utf-8"?>
<!-- Generator: Adobe Illustrator 16.0.0, SVG Export Plug-In . SVG Version: 6.00 Build 0)  -->
<!DOCTYPE svg PUBLIC "-//W3C//DTD SVG 1.1//EN" "http://www.w3.org/Graphics/SVG/1.1/DTD/svg11.dtd">
<svg version="1.1" id="Layer_1" xmlns="http://www.w3.org/2000/svg" xmlns:xlink="http://www.w3.org/1999/xlink" x="0px" y="0px"
	 width="100px" height="100px" viewBox="0 0 100 100" enable-background="new 0 0 100 100" xml:space="preserve">
<path fill="#a4a929" d="M75.527,36.666c-2.494,0-4.892,0.407-7.142,1.14C63.797,27.656,53.607,20.58,41.742,20.58
	c-16.157,0-29.251,13.096-29.251,29.251c0,1.006,0.05,1.999,0.148,2.978c-6.863,1.498-12.01,7.908-12.01,15.22
	c0,8.435,6.841,15.588,15.277,15.588h59.621c12.76,0,23.102-10.674,23.102-23.474C98.629,47.347,88.287,36.666,75.527,36.666"/>
</svg>
