{
	"common": {
		"brand": "Salus",
		"countries": {
			"cz": "Tsjechische Republiek",
			"de": "Duitsland",
			"dk": "Denemarken",
			"es": "Spanje",
			"fr": "Frankrijk",
			"hu": "Hongarije",
			"it": "Italië",
			"nl": "Nederland",
			"no": "Noorwegen",
			"pl": "Polen",
			"ro": "Roemenië",
			"ru": "Rusland",
			"sk": "Slowakije",
			"sl": "Slovenië",
			"sv": "Zweden",
			"uk": "Verenigd Koninkrijk",
			"us": "Verenigde Staten"
		},
		"daysOfWeek": {
			"abbreviations": {
				"friday": "Vr",
				"monday": "Ma",
				"saturday": "Za",
				"sunday": "Zo",
				"thursday": "Do",
				"tuesday": "Di",
				"wednesday": "Wo"
			}
		},
		"footer": {
			"copyrightText": "Salus Controls, Inc. Alle rechten voorbehouden.",
			"privacyPolicy": "Privacybeleid",
			"termsAndConditions": "Voorwaarden"
		},
		"header": {
			"about": "Over deze app",
			"allEquipment": "Alle apparatuur",
			"contactSupport": "Contact Support",
			"dataCollection": "Dataverzameling",
			"equipment": "Apparatuur",
			"faq": "FAQ",
			"gateways": "Gateways",
			"help": "Hulp",
			"home": "Home",
			"logout": "Uitloggen",
			"messageCenter": "Berichtencentrum",
			"myStatus": "Mijn status",
			"oneTouch": "OneTouch",
			"profile": "Profiel",
			"settings": "Instellingen",
			"setupEquipment": "Apparatuurinstallatie"
		},
		"labels": {
			"accept": "Accepteren",
			"apply": "Toepassen",
			"back": "Terug",
			"cancel": "Annuleren",
			"close": "Sluiten",
			"create": "Aanmaken",
			"daily": "Dagelijks",
			"delete": "Verwijderen",
			"edit": "Bewerken",
			"email": "E-mail",
			"enable": "Activeren",
			"finished": "Klaar",
			"monthly": "Maandelijks",
			"next": "Volgende",
			"no": "Nee",
			"off": "uit",
			"ok": "OK",
			"on": "aan",
			"save": "Bewaren",
			"saved": "Bewaard",
			"select": "Selecteer een onderdeel",
			"set": "Instellen",
			"skip": "Overslaan",
			"turnOff": "Uitzetten",
			"turnOn": "Aanzetten",
			"weekly": "Wekelijks",
			"yearly": "Jaarlijks",
			"yes": "Ja"
		},
		"languages": {
			"cs": "Tsjechisch",
			"da": "Deens",
			"de": "Duits",
			"en-uk": "Engels (VK)",
			"en-us": "Engels (VS)",
			"es": "Spaans",
			"fr": "Frans",
			"hu": "Hongaars",
			"it": "Italiaans",
			"nl": "Nederlands",
			"no": "Noors",
			"pl": "Pools",
			"ro": "Roemeens",
			"ru": "Russisch",
			"sk": "Slowaaks",
			"sl": "Sloveens",
			"sv": "Zweeds"
		},
		"lessDetails": "Minder details",
		"loadingMessage": "Salus is aan het laden...",
		"months": {
			"april": "April",
			"august": "Augustus",
			"december": "December",
			"february": "Februari",
			"january": "Januari",
			"july": "Juli",
			"june": "Juni",
			"march": "Maart",
			"may": "Mei",
			"november": "November",
			"october": "Oktober",
			"september": "September"
		},
		"moreDetails": "Meer details",
		"symbols": {
			"celsius": "&#8451;",
			"fahrenheit": "&#8457;"
		},
		"validation": {
			"ayla": {
				"cantbeblank": "Dit veld moet ingevuld zijn.",
				"confirmaccountbeforecontinue": "Bevestig account alvorens door te gaan",
				"hasalreadybeentaken": "Dit e-mailadres is al in gebruik",
				"isinvalid": "Dit veld is ongeldig",
				"tokeninvalid": "Dit token is ongeldig",
				"useridisalreadygratnedforthatresource": "Dit e-mailadres is al in gebruik"
			},
			"default": {
				"requiredField": "Dit veld is verplicht"
			},
			"email": {
				"alreadyConfirmed": "Dit e-mailadres is al bevestigd.",
				"notFound": "Er is geen account bekend voor dat e-mailadres",
				"notMatching": "De ingevoerde e-mailadressen komen niet overeen",
				"notValid": "Het ingevoerde e-mailadres is ongeldig"
			},
			"integerRangeFormatted": "Geheel getal tussen __min__ en __max__",
			"ipAddress": "Dit adres is ongeldig. Gebruik formulier x.x.x.x",
			"mobile": {
				"notValid": "Dit telefoonnummer is ongeldig.",
				"selectCountry": "Kies eerst een land."
			},
			"numberRangeFormatted": "Getal tussen __min__ en __max__",
			"passwords": {
				"notMatching": "De wachtwoorden komen niet overeen",
				"tooLong": "De maximale lengte van wachtwoorden is veertien karakters",
				"tooShort": "De minimale lengte van wachtwoorden is zes karakters",
				"tooSimple": "Dit wachtwoord is te eenvoudig"
			},
			"postcode": {
				"notValid": "Ongeldige postcode"
			},
			"wordsOnly": "In dit veld alleen letters invoeren (geen cijfers)",
			"zip": {
				"notValid": "Deze postcode is ongeldig. Hij moet uit 4 cijfers en 2 letters bestaan."
			}
		}
	},
	"dashboard": {
		"addGateway": "Nieuwe gateway toevoegen",
		"header": {
			"addAPhoto": "Foto toevoegen",
			"cancelScan": "Scan annuleren?",
			"choosePhoto": "Foto uit mijn bestand kiezen",
			"scanComplete": "Scan voltooid",
			"scanMyHome": "Scan mijn huis",
			"scanned": "gescand",
			"scanning": "Bezig met scannen...",
			"takeAPhoto": "Neem een ​foto"
		},
		"welcomeTile": {
			"description": "Op het dashboard kunt u uw apparatuur zien en beheren. U kunt apparatuur, een OneTouch, en meer vastpinnen voor eenvoudig thuismanagement van één scherm.",
			"title": "Welkom op uw dashboard!"
		}
	},
	"email": {
		"dynamic_body": {
			"title": "Hallo [[user_name]]"
		},
		"footer": {
			"legalText": "",
			"salusCompanyAddress": "850 Main St, Redwood City, CA 94063",
			"salusCompanyName": "Salus Controls, Inc",
			"salusCopyRightHTML": "&copy; Salus Inc. 2016",
			"salusWebSiteText": "www.salusinc.com",
			"salusWebSiteUrl": "http://www.salusinc.com"
		},
		"guest_signup_confirmation": {
			"buttonText": "Bevestig account",
			"contentBottomHTML": "<p>Welkom bij Connected Solutions van Salus!</p>",
			"contentTopHTML": "<p>U bent uitgenodigd bij de Salus-account van [primary user]. Bevestig nu uw gast-account. U hebt 30 dagen vanaf vandaag om te bevestigen.</p>",
			"emailSubject": "Bevestig uw Salus-bezoekerstoegang",
			"title": "Welkom [[user_name]]!"
		},
		"password_reset": {
			"buttonText": "Reset wachtwoord",
			"contentBottomHTML": "<p>Indien u hier niet om gevraagd hebt of van gedachten veranderd  bent, kunt u dit bericht negeren; u hoeft geen actie te ondernemen.</p><p>Hebt u vragen of hebt u hulp nodig?  Ga naar onze Ondersteuningspagina's voor handige informatie.</p><p>Uw serviceteam van Connected Solution van Salus</p>",
			"contentTopHTML": "<p>We received your password reset request. Please reset your password now. Your reset request will expire in 6 hours and this link is only good for one use.</p>",
			"emailSubject": "Uw reset-verzoek",
			"title": "Hallo [[user_name]]"
		},
		"resource_share": {
			"emailBodyHTML": "[[share_owner_user_name]] gaf u [[share_operation]] toegang tot de [[share_resource_name]] met ID: [[share_resource_id]]",
			"emailSubject": "[[share_owner_user_name]] gaf u [[share_operation]] toegang tot de [[share_resource_name]] met ID: [[share_resource_id]]",
			"title": "Hallo [[share_target_user_name]]"
		},
		"signup_confirmation": {
			"buttonText": "Bevestig account",
			"contentBottomHTML": "",
			"contentTopHTML": "<p>Uw profiel is aangemaakt. Bevestig uw account binnen 30 dagen vanaf vandaag.</p><p>Zodra uw account bevestigd is, nemen we de rest van het proces met u door.</p><p>Welkom bij Connected Solutions van Salus!</p>",
			"emailSubject": "Bevestig uw Salus-account",
			"title": "Welcome [[user_name]]!"
		},
		"trigger_app": {
			"title": "Hallo [[user_name]]"
		}
	},
	"equipment": {
		"common": {
			"firmVer": "Firmware-versie:",
			"mac": "MAC-adres:",
			"model": "Model:",
			"serialNum": "Serienummer:"
		},
		"delete": {
			"equipmentDontWorry": "Geen zorgen, u kunt het later weer toevoegen.",
			"gatewayWarning": "Maar diensten die met de gateway verbonden zijn, worden ook verwijderd.",
			"removeEquipment": "Apparatuur verwijderen",
			"removeEquipmentFormatted": "Verwijder__modelTypeName__",
			"removeSharedEquipmentFormatted": "Verwijder Shared __modelTypeName__",
			"sharesDontWorry": "Geen zorgen, u kunt ze later weer toevoegen.",
			"warning": "U gaat __product_name__ verwijderen"
		},
		"dialog": {
			"body": "Kies uit de volgende opties:",
			"changeAllDevicesFormatted": "Wijzig alle __modelTypeName__ apparaten",
			"changeThisDevice": "Wijzig alleen deze",
			"checkboxDoNotShowAgain": "Laat dit niet meer zien",
			"titleFormatted": "U gaat de instellingen van een enkele __modelTypeName__ wijzigen"
		},
		"error": {
			"deviceOffline": "Het apparaat is offline",
			"eMeterGraphError": "Er was een probleem met het laden van de grafiek, klik hier om opnieuw te laden",
			"syncError": "Synchroniseren van eigenschappen niet gelukt voor __device__",
			"tryAgain": "Kijk of uw apparaat operationeel is en probeer het later nog eens."
		},
		"gateway": {
			"address": {
				"addressLabel": "Adres",
				"cityLabel": "Woonplaats",
				"header": "Adres waar uw apparatuur zich bevindt",
				"postcodeLabel": "Postcode",
				"stateLabel": "Provincie",
				"zipLabel": "Postcode"
			},
			"deviceInputLabel": "Naam gateway",
			"deviceSerialNumber": "Serienummer gateway",
			"error": {
				"invalidDeviceSerialNumber": "Gateway niet gevonden. Probeer knop van gateway en klik nogmaals op zoeken vernieuwen.",
				"registrationFailedNoNodes": "Gateway-configuratie niet gelukt. Wacht twee minuten en probeer opnieuw.",
				"registrationFailedUnknown": "Gateway-registratie niet gelukt. Probeer opnieuw.",
				"registrationTimeout": "Registratievenster is verlopen. Druk nogmaals op de gateway-knop."
			},
			"header": "Activeer uw account",
			"instruction": "Klik op de onderstaande knop \"Zoek naar Gateway\" als het led-lampje van uw gateway blauw is. Het serienummer van de gateway zou automatisch ingevuld moeten worden.",
			"searchButton": "Search for Gateway",
			"subheader": "Zorg dat uw gateway via een ethernetkabel met het modem verbonden is.",
			"submitButton": "Activeer mijn gateway"
		},
		"history": {
			"headers": {
				"date": "Datum",
				"event": "Evenement",
				"time": "Tijd",
				"user": "Gebruiker"
			},
			"title": "Geschiedenis"
		},
		"information": {
			"headers": {
				"connection": "Verbonden",
				"dsn": "Serienummer",
				"firmware": "Firmware Version",
				"mac": "MAC-adres",
				"oem": "Model",
				"version": "Software-versie"
			},
			"title": "Informatie"
		},
		"it600Warnings": {
			"Error01": "Fout01: Probleem met thermostaatgekoppelde TRV-hardware",
			"Error02": "Fout02: Bodemsensor thermostaat oververhit",
			"Error03": "Fout03: Bodemsensor thermostaat open",
			"Error04": "Fout04: Bodemsensor thermostaat kortsluiting",
			"Error05": "Fout05: Verbinding thermostaat - coördinator is weg",
			"Error06": "Fout06: Verbinding thermostaat - bedradingscentrum is weg",
			"Error07": "Fout07: Verbinding thermostaat - TRV is weg",
			"Error08": "Fout08: Verbinding thermostaat - Ontvangst 1 is weg",
			"Error09": "Fout09: Verbinding thermostaat - Ontvangst 2 is weg",
			"Error21": "Fout21: Link tussen thermostaatgekoppelde TRV en coördinator is weg",
			"Error22": "Fout22: Batterij thermostaatgekoppelde TRV is bijna leeg",
			"Error23": "Fout23: Thermostaat ontvangt bericht van niet-gekoppelde TRV of TRV ontvangt bericht van niet-gekoppelde thermostaat",
			"Error24": "Fout24: Thermostaat afgestoten door bedradingscentrum",
			"Error25": "Fout25: Verbinding thermostaat - Ouder is weg",
			"Error30": "Fout30: Koppelingsprobleem van aan thermostaat gekoppelde TRV",
			"Error31": "Fout31: Aanpassingsprobleem van aan thermostaat gekoppelde TRV",
			"Error32": "Fout32: Batterij thermostaat is bijna leeg",
			"modal": {
				"title": "IT600 huidige fouten"
			}
		},
		"myEquipment": {
			"categories": {
				"noEquipment": "Uw apparatuur is niet van dit type.",
				"schedules": {
					"scheduleButton": "Schema aanmaken",
					"scheduleText": "Nu schema aanmaken",
					"smartPlugs": "Schema's maken automatisch gebruik van uw voorkeursinstellingen voor het draaien van smart plugs. Gebruik de schema's die wij aanbevelen, of stel uw eigen schema's in.",
					"thermostats": "Schema's regelen opwarming of afkoeling van uw thermostaat volgens voorkeursinstellingen. Gebruik de schema's die wij aanbevelen, of stel uw eigen schema's in.",
					"waterHeaters": "Schema's regelen uw boilers automatisch volgens voorkeursinstellingen. Gebruik de schema's die wij aanbevelen, of stel uw eigen schema's in."
				},
				"thermostats": {
					"createTsc": "Nieuwe universele regelaar toevoegen",
					"individualControls": "Individuele regelaars",
					"singleControls": "Universele regelaar",
					"thermostatsIn": "Thermostaten in"
				},
				"title": "Categorieën",
				"types": {
					"carbonMonoxideDetectors": "Koolmonoxide-verklikkers",
					"doorMonitors": "Deurmonitoren",
					"energyMeters": "Energiemeters",
					"gateways": "Gateways",
					"smartPlugs": "Smart Plugs",
					"smokeDetectors": "Rookmelders",
					"thermostats": "Thermostaten",
					"trvs": "Thermostatische radiatorkleppen",
					"waterHeaters": "Boilers",
					"windowMonitors": "Raam-monitoren",
					"wirelessUncontrollableDevices": "Draadloze niet-reguleerbare apparaten"
				}
			},
			"groups": {
				"addNewEquipment": "Nieuwe apparatuur toevoegen",
				"addNewGroup": "Nieuwe groep toevoegen",
				"groupEquipment": "Groepsapparatuur",
				"success": "Gelukt!",
				"successMessage": "Uw universele regelaar voor de thermostaat is aangemaakt.",
				"title": "Groepen",
				"ungrouped": "Niet-gegroepeerde apparatuur"
			},
			"newGroup": {
				"createError": "Er was een probleem met het aanmaken van uw groep. Probeer opnieuw.",
				"delete": {
					"linkText": "Groep verwijderen",
					"modalLabel": "U gaat de groep verwijderen",
					"warning": "Geen zorgen, de apparaten blijven in uw account en u kunt de groep weer opnieuw aanmaken."
				},
				"deviceError": "Groepen moeten minimaal een apparaat hebben",
				"empty": "Sorry, u hebt geen apparaten om weer te geven!",
				"nameError": "Voer een geldige groepsnaam in",
				"newGroupText": "Naam van apparatuurgroep",
				"newGroupTitle": "Geef uw groep een naam",
				"pageTitle": "Groepsapparatuur",
				"selectEquipmentTitle": "Selecteer de apparatuur voor deze groep",
				"updateError": "Er was een probleem met het bijwerken van uw groep. Probeer opnieuw."
			},
			"subHeader": "Organiseer uw apparatuur - op categorie, locatie, hoe u maar wilt.",
			"title": "Mijn apparatuur"
		},
		"names": {
			"carbonMonoxideDetector": "Koolmonoxidemelder",
			"coordinatorDevice": "Coördinator-apparaat",
			"doorMonitor": "Deurmonitor",
			"energyMeter": "Energiemeter",
			"gateway": "Gateway",
			"gatewayNode": "Gateway-node",
			"generic": "Apparatuur",
			"iT600BoilerReceiver": "Boiler-ontvanger",
			"iT600Thermostat": "IT600 thermostaat",
			"iT600Trv": "TRV",
			"iT600WiringCenter": "Bedradingscentrum",
			"miniSmartPlug": "Smart Plug",
			"smartPlug": "Smart Plug",
			"smokeDetector": "Rookmelder",
			"thermostat": "Thermostaat",
			"waterHeater": "Boiler",
			"windowMonitor": "Raam-monitor"
		},
		"oneTouch": {
			"automations": {
				"addNew": "Nieuwe OneTouch toevoegen",
				"added": "OneTouch toegevoegd",
				"title": "OneTouch"
			},
			"create": {
				"criteriaSection": "Stel de regels op",
				"defaultRuleName": "Nieuwe OneTouch-regel __ruleNum__",
				"include": "Deze OneTouch toevoegen aan een status?",
				"missingCriteriaError": "Kies minstens één handeling",
				"nameSection": "Geef deze OneTouch een naam",
				"nameTextbox": "Bijv. Buitenlicht",
				"pin": {
					"pinText": "Vastpinnen",
					"subtitle": "Wilt u deze OneTouch vastpinnen aan uw dashboard?",
					"unpinText": "Niet vastpinnen"
				},
				"subtitle": "",
				"title": "Nieuwe OneTouch aanmaken"
			},
			"criteria": {
				"andWhen": "en wanneer",
				"buttonPress": "De knop Nu draaien is ingedrukt",
				"dayOfWeek": {
					"everyday": "Elke dag",
					"prefix": "Dag van de week is __val__",
					"weekdays": "Weekdagen",
					"weekends": "Weekenden"
				},
				"doThis": "doe dit",
				"orWhen": "of wanneer",
				"propVal": {
					"doorWindow": {
						"closed": "gesloten",
						"open": "open"
					},
					"generic": "__device_name__ tot __val__ instellen",
					"is": "is __val__",
					"isBetween": "ligt tussen __lower_val__ en __upper_val__",
					"isGreaterThan": "is groter dan __val__",
					"isLessThan": "is kleiner dan __val__",
					"sensor": {
						"alerting": "melden"
					},
					"smartPlug": {
						"action": "__device_name__ __val__ uitzetten",
						"off": "UIT",
						"on": "AAN"
					},
					"thermostat": {
						"action": "__device_name__ tot __val__ instellen",
						"auto": "Automatische modus",
						"cooling": "Koelmodus",
						"decreaseBy": "verlagen met __val__ degrees",
						"degrees": "graden",
						"fanAuto": "Automatische ventilator",
						"fanOn": "Ventilator aan",
						"heating": "Verwarmingsmodus",
						"increaseBy": "verhogen met __val__ degrees",
						"off": "Uit"
					},
					"waterHeater": {
						"action": "Set __device_name__ to __val__",
						"boost": "boost",
						"continuous": "continuous",
						"off": "off",
						"schedule": "scheduled"
					}
				},
				"sendAlert": {
					"email": {
						"prefix": "Stuur een e-mail naar __val__",
						"sendEmail": "Stuur een e-mail"
					},
					"sms": {
						"prefix": "Stuur een sms naar __val__",
						"sendSMS": "Stuur een sms"
					}
				},
				"sorry": "sorry",
				"thenDoThis": "doe dan het volgende",
				"thenDoThisLater": "doe dit later",
				"timeOfDay": {
					"prefix": "Tijd is __val__",
					"suffix": "tot __val__"
				},
				"timer": {
					"baseTime": "__property_actions__ in __time_string__",
					"combined": "__hour_string__ en __min_string__",
					"hour": {
						"hour": "__time__ uur",
						"hours": "__time__ uur"
					},
					"min": {
						"minute": "__time__ minuut",
						"minutes": "__time__ minuten"
					},
					"now": "__property_actions__ nu"
				},
				"unsupported": "Het criterium van uw regel wordt momenteel niet ondersteund",
				"when": "wanneer"
			},
			"details": {
				"addToDash": "Toevoegen aan dashboard:",
				"delete": {
					"modalText": "De OneTouch draait niet meer en wordt uit uw Mijn status verwijderd.",
					"oneTouch": "U gaat __one_touch__ verwijderen"
				},
				"includedIn": "besloten in:",
				"runNow": "Nu draaien"
			},
			"edit": {
				"title": "OneTouch bewerken"
			},
			"emails": {
				"subjectFormatted": "OneTouch-regel __ruleName__ werd getriggerd",
				"usernameFormatted": "__firstname__ __lastname__"
			},
			"menus": {
				"doThis": {
					"header": "DOE DIT",
					"notifyMe": {
						"contactMenu": {
							"addNew": "Nieuw toevoegen",
							"addNewContact": "Nieuwe contactpersoon toevoegen",
							"countryCode": "Land",
							"email": "E-mailadres",
							"emailConfirm": "E-mailadres bevestigen",
							"emailOptional": "E-mailadres (optioneel)",
							"mobilePhone": "Mobiel nummer",
							"mobilePhoneOptional": "Mobiel nummer (optioneel)",
							"name": "Naam contactpersoon",
							"select": "Hoe willen u en uw gasten meldingen ontvangen?"
						},
						"email": "Stuur e-mail",
						"emailHeader": "E-mail",
						"sms": "Stuur sms",
						"smsHeader": "Tekst sms"
					},
					"propertyChange": {
						"changeFanMode": "Ventilatormodus wijzigen",
						"changeMode": "Wijzigingsmodus",
						"changeSetTemp": "Instellingspunt wijzigen",
						"exactTemp": "Precieze temperatuur",
						"fanAuto": "Automatisch",
						"fanOn": "Ventilator aan",
						"increaseDecrease": "Verhogen of verlagen met",
						"smartPlugOff": "Zet Smart Plug UIT",
						"smartPlugOn": "Zet Smart Plug AAN",
						"waterHeater": {
							"boost": "Instellen op boost-modus",
							"continuous": "Instellen op doorlopend draaien",
							"off": "Instellen op uit",
							"schedule": "Instellen op schema"
						}
					},
					"root": {
						"notifyMe": "Stuur me een notificatie",
						"propertyChange": "Apparaat-eigenschappen wijzigen"
					}
				},
				"thenDoThis": {
					"header": "DOE DIT DAN LATER",
					"root": {
						"stateOfEquipment": "Staat van de apparatuur",
						"undo": "Ongedaan maken"
					},
					"timer": {
						"changeCheckBox": "Gebruiker mag 'duur' wijzigen",
						"hours": "Zoveel uur",
						"minutes": "Zoveel minuten",
						"title": "Hoeveel later moet dit gebeuren?"
					},
					"undo": {
						"title": "Deze OneTouch wijzigen?"
					}
				},
				"when": {
					"dayOfWeek": {
						"finalMenu": "Selecteer de dagen dat u uw OneTouch wilt draaien.",
						"picker": "Kies dagen van de week",
						"weekday": "Weekdagen",
						"weekend": "Weekenden"
					},
					"header": "WANNEER",
					"pressAButton": {
						"button": "Regel van kracht bij drukken op knop"
					},
					"root": {
						"dayOfWeek": "Dag van de week",
						"pressAButton": "Ik druk op een knop",
						"stateOfEquipment": "Staat van de apparatuur",
						"timeOfDay": "Tijd van de dag",
						"weather": "Weer"
					},
					"stateOfEquipment": {
						"doorWindow": {
							"closed": "Is gesloten",
							"open": "Is open"
						},
						"equipmentCategory": "Apparatuurcategoriën",
						"equipmentGroup": "Apparatuurgroepen",
						"individualEquipment": "Individuele apparatuur",
						"sensor": {
							"alert": "Sensor geeft een melding"
						},
						"smartPlug": {
							"off": "Smart Plug is UIT",
							"on": "Smart Plug is AAN"
						},
						"thermostats": {
							"above": "Boven",
							"below": "Onder",
							"between": "Tussen",
							"enterValue": "Voer een temperatuur in",
							"selectAboveValue": "Selecteer de boventemperatuur",
							"selectBelowValue": "Selecteer de ondertemperatuur"
						},
						"waterHeater": {
							"boost": "Is in boost-modus",
							"continuous": "Draait  doorlopend",
							"off": "Staat uit",
							"schedule": "Draait volgens schema"
						}
					},
					"timeOfDay": {
						"endTime": "Stoptijd",
						"endTimeError": "Stoptijd moet na begintijd liggen",
						"formatError": "Voer het juiste formaat in",
						"specify": "Tijd instellen",
						"startTime": "Begintijd",
						"sunriseSunset": "Zonsopkomst/Zonsondergang",
						"to": "tot"
					},
					"weather": {
						"current": "Huidige temperatuur",
						"forecast": "Weersverwachting"
					}
				}
			},
			"recommended": {
				"addRecommended": "OneTouch toevoegen",
				"modal": {
					"titleFormatted": "Apply OneTouch rule '__ruleName__'"
				},
				"smartPlug": {
					"12am": {
						"description": "Een Smart Plug 's nachts uitzetten",
						"name": "'s Nachts uitzetten",
						"nameFormatted": "'s Nachts uitzetten: __name__"
					},
					"oneHour": {
						"description": "Een Smart Plug voor 1 uur aanzetten",
						"name": "Eén-uur-timer",
						"nameFormatted": "Eén-uur-timer: __name__"
					},
					"title": "Smartplugs",
					"turnOff": {
						"description": "Een Smart Plug direct uitzetten",
						"name": "Uitzetten",
						"nameFormatted": "Uitzetten: __name__"
					}
				},
				"thermostat": {
					"title": "Thermostaten",
					"turnOff": {
						"description": "Een thermostaat direct uitzetten",
						"name": "Thermostaat uitzetten",
						"nameFormatted": "Thermostaat uitzetten: __name__"
					}
				},
				"title": "Aanbevolen",
				"waterHeater": {
					"boostFor2": {
						"description": "Boostmodus voor 2 uur aanzetten",
						"name": "Boost voor 2 uur",
						"nameFormatted": "Boost voor 2 uur __name__"
					},
					"title": "Boilers"
				}
			}
		},
		"property": {
			"names": {
				"coolingSetpoint_x100": "Koelpuntinstelling",
				"heatingControl": "Warmteregelaar",
				"temperatureOffset": "Afwijking kamertemperatuur",
				"cylinderConnection": "Cylinderconnectie",
				"oUTSensorProbe": "Sensorsonde",
				"oUTSensorType": "Sensorsonde gebruikt als luchtsensor of vloersensor",
				"coolingControl": "Koelregelaar",
				"actuatorType": "Aandrijftype",
				"valveProtection": "Klepbeveiliging",
				"frostSetpoint_x100": "Instelling vriestemperatuur",
				"floorCoolingMin_x100": "Koellimiet vloersensor",
				"floorHeatingMax_x100": "Hoge temperatuurlimiet vloersensor",
				"floorHeatingMin_x100": "Lage temperatuurlimiet vloersensor",
				"heatingSetpoint_x100": "Instellingspunt verwarming",
				"holdDuration": "Aanhouden (minuten)",
				"lEDMode": "Ledmodus",
				"lockKey": "Wilt u de vergrendelingsinstelling op uw thermostaat wijzigen?",
				"keyLock": "Wilt u de vergrendelingsinstelling op uw thermostaat wijzigen?",
				"maxHeatSetpoint_x100": "Instellingslimiet voor verwarmen",
				"minCoolSetpoint_x100": "Instellingslimiet voor koelen",
				"networkLANIP": "IP-adres",
				"networkLANMode": "Network LAN Mode",
				"networkLANRouterAddr": "Router",
				"networkLANSubnet": "Subnetmasker",
				"networkPriDNS": "Primaire DNS",
				"networkSecDNS": "Secondaire DNS",
				"shutOffDisplay": "Lcd-display uitzetten",
				"systemMode": "Systeemmodus",
				"temperatureDisplayMode": "Fahrenheit OF Celsius",
				"timeFormat24Hour": "Uurweergave"
			},
			"values": {
				"actuatorClosed": "Normaal gesloten",
				"actuatorOpen": "Normaal geopend",
				"alwaysOn": "Altijd aan",
				"auto": "Automatisch",
				"celsius": "Celsius",
				"cool": "Koelen",
				"cylinderConnected": "Cilindersonde aangesloten",
				"cylinderNotConnected": "Cilindersonde niet aangesloten",
				"disabled": "Uitgeschakeld",
				"dynamic": "Dynamic",
				"emergencyHeating": "Noodverwarming",
				"enabled": "Geactiveerd",
				"fahrenheit": "Fahrenheit",
				"heat": "Verwarmen",
				"hour12": "12:00",
				"hour24": "24:00",
				"locked": "Ja, vergrendelen",
				"longCycle": "+/- 0,5  graad C",
				"midCyle": "+/- 0,25  graad C",
				"no": "Nee",
				"numberInCFormatted": "__number__ graden C",
				"numberInFFormatted": "__number__ graden F",
				"off": "Uit",
				"offWhenIdle": "Uitschakelen indien niet in gebruik",
				"on": "Aan",
				"sensorAir": "Luchtsensor",
				"sensorConnected": "Sensorsonde aangesloten",
				"sensorDewPointConnected": "Dauwpuntsensor aangesloten",
				"sensorFloor": "Vloersensor",
				"sensorNotConnected": "Geen sensor aangesloten",
				"shortCyle": "+/- 0",
				"static": "Static",
				"turnOff": "Uitzetten",
				"turnOn": "Aanzetten",
				"unlocked": "Nee, niet vergrendelen",
				"yes": "Ja"
			}
		},
		"provisioning": {
			"boilerReceiver": "iT600 Boiler-ontvanger",
			"coMonitor": "Koolmonoxide-verklikker",
			"coordinator": "Coördinator-apparaat",
			"device": "Salus-bestuurd apparaat",
			"doorSensor": "Deursensor",
			"energyMeter": "Energiemonitor voor het hele huis",
			"gateway": "Salus Universal Gateway",
			"gatewayNode": "Gatewaynode",
			"it530Thermostat": "iT530-thermostaat",
			"it600Thermostat": "iT600-thermostaat",
			"namedEnergyMonitor": "__name__'s Energiemonitor",
			"optimaThermostat": "Optima-thermostaat",
			"smartPlug": "Smart Plug",
			"smokeAlarm": "Rookmelder",
			"trv": "iT600 TRV",
			"windowSensor": "Raamsensor",
			"wiringCenter": "iT600 Bedradingscentrum"
		},
		"schedule": {
			"create": {
				"description": "Via schema's draait de apparatuur automatisch op uw voorkeursinstellingen.",
				"no": "Nu niet",
				"question": "Wilt u nu een schema voor deze apparatuur opzetten?",
				"yes": "Ja, zet een schema op"
			},
			"widget": {
				"title": "Schedule"
			}
		},
		"settings": {
			"empty": "Sorry, u hebt geen instellingen om weer te geven!",
			"networkSettingsSaveConfirmSecondary": "Wilt u uw netwerkinstellingen bewaren?",
			"networksSettingsSaveConfirmPrimary": "Uw netwerkinstellingen zijn bijgewerkt.  Wilt u ze bewaren, dan moet u 1 minuut op deze pagina blijven.",
			"networksSettingsSavingPrimary": "We bewaren uw netwerkinstellingen. Blijf op deze pagina.",
			"networksSettingsSavingSecondary": "Dit proces duurt ongeveer 1 minuut.",
			"title": "Instellingen"
		},
		"stackedBarGraph": {
			"time": "Tijd",
			"watts": "Watt"
		},
		"status": {
			"alias": "Naam van apparatuur",
			"battery": {
				"charged": "__val__% opgeladen"
			},
			"monitoring": "Monitoring",
			"thermostat": {
				"lock": "Thermostaat vergrendeld",
				"unlock": "Thermostaat ontgrendeld"
			}
		},
		"thermostat": {
			"frostPointModal": {
				"header": "Schakel klimaatsysteem uit",
				"labels": {
					"buttonCancel": "Annuleren",
					"buttonTurnOff": "Klimaatsysteem uitzetten",
					"chooseFrostPoint": "Koudste punt kiezen",
					"radioNo": "Nee, geen koudste punt instellen",
					"radioYes": "Ja, koudste punt instellen"
				},
				"subHeader": "Wilt u een koudste temperatuurpunt instellen?",
				"tempModeC": "__number__ &#8451;",
				"tempModeF": "__number__ &#8457;"
			},
			"holdPointModal": {
				"header": "Ingestelde temperatuur aanhouden",
				"holdTitle": "Aanhouden",
				"labels": {
					"btnCancel": "Annuleren",
					"btnOk": "OK",
					"radioScheduleChange": "Tot de volgende schemawijziging",
					"radioUntilChange": "Tot ik de ingestelde temperatuur wijzig"
				}
			},
			"menus": {
				"modeLabels": {
					"auto": "Automatisch",
					"cooling": "Koelen",
					"fan": "Ventilator",
					"fanOn": "Ventilator aan",
					"followSchedule": "Volg schema",
					"heating": "Verwarming",
					"off": "Uit",
					"permanentHold": "Voorgoed aanhouden",
					"systemOff": "Systeem uit",
					"temporaryHold": "Temperatuur aanhouden"
				}
			}
		},
		"thermostatSingleControl": {
			"createPage": {
				"addButtonText": "Een nieuwe universele regelaar toevoegen",
				"bottomBlurb": "U kunt nog steeds wijzigingen aanbrengen aan deze universele regelaar nadat die ingesteld is.",
				"delete": "Universele regelaar verwijderen",
				"deviceError": "Er moet minstens 1 verbonden apparaat in de TSC zitten",
				"error": "Er was een probleem met het aanmaken van de TSC. Probeer opnieuw.",
				"individualControls": "Individuele regelaars",
				"nameError": "Een geldige naam voor uw TSC invoeren",
				"newTSCSectionTitle": "Deze universele regelaar een naam geven",
				"newTSCText": "Bijv. Slaapkamer boven",
				"thermostatsSectionTitle": "Selecteer de thermostaten die u in deze universele regelaar wilt hebben.",
				"titleExisting": "Universele regelaars",
				"titleNoExisting": "Universele regelaar opzetten",
				"typeError": "U kunt geen verschillende thermostaatmodellen in een TSC gebruiken"
			},
			"initialSetup": {
				"description": "Wijzig er een, wijzig er vele. Lorem ipsum dolor sit amet, consectetur adipiscing elit. Sed gravida bibendum dictum. Maecenas nec eleifend dui. Suspendisse mollis purus scelerisque maximus ultricies. Nulla a metus arcu. Interdum et malesuada fames ac ante ipsum",
				"prompt": "Wilt u een universele regelaar instellen voor meerdere thermostaten?",
				"title": "Universele regelaar instellen"
			},
			"title": "Thermostaat universele regelaar"
		},
		"trv": {
			"add": "Add TRV",
			"modal": {
				"title": "Selecteer TRV('s) voor __name__",
				"tooMany": "U kunt maximaal 6 TRV's aansluiten op één thermostaat"
			},
			"noTrvs": "Er zijn momenteel geen TRV's op dit apparaat aangesloten",
			"title": "TRV's op deze thermostaat"
		},
		"usage": {
			"interactiveMode": "Interactieve modus",
			"title": "Gebruik"
		}
	},
	"error404": {
		"backToDash": "Back to home",
		"message": "De door u gevraagde pagina wordt niet gevonden.",
		"title": "404 Foutmelding"
	},
	"errors": {
		"responseText": "Reactietekst:",
		"serviceEndpoint": "Eindpunt service:",
		"siteMessage": "Sorry, er is een fout opgetreden, klik hier en probeer opnieuw!",
		"statusCode": "Statuscode:",
		"statusText": "Statustekst:"
	},
	"key": "consument-en",
	"login": {
		"changePasswordWithToken": {
			"button": "Nieuw wachtwoord bewaren",
			"confirmPasswordLabel": "Nieuw wachtwoord bevestigen",
			"message": "Nieuw wachtwoord aanmaken",
			"newPasswordLabel": "Nieuw wachtwoord",
			"resetPasswordTokenLabel": "Wachtwoordtoken resetten"
		},
		"confirm": {
			"emailSent": "We sturen u een e-mail waarmee u uw account kunt bevestigen.",
			"headline": "Bijna klaar",
			"ready": "Klaar voor aanmelden?",
			"resend": "Uw account is bijna bevestigd, __user_name__!",
			"thanks": "Bedankt voor uw inschrijving, __user_name__!",
			"trustedSender": "Voeg email@salus.com toe aan uw veilige e-mailcontacten zodat u updates kunt ontvangen."
		},
		"forgotPassword": {
			"backToSignInLinkLabel": "Terug naar aanmelden",
			"button": "E-mail tijdelijk token",
			"inputLabel": "E-mail voor deze account",
			"message": "Wachtwoord vergeten?"
		},
		"forgotPasswordConfirmation": {
			"button": "Terug naar aanmelden",
			"message": "We hebben u instructies gestuurd om uw wachtwoord te resetten. Controleer uw e-mail.",
			"title": "Wachtwoord vergeten"
		},
		"headline": "Welkom bij\nSalus",
		"login": {
			"accountLink": "Een account aanmaken",
			"accountMessage": "Hebt u nog geen account?",
			"button": "Aanmelden",
			"emailLabel": "E-mail",
			"error": {
				"accountLocked": "Uw account is vergrendeld vanwege onjuiste aanmeldpogingen. Wacht 30 minuten voor u zich weer aanmeldt.",
				"invalidLanguage": "Kies een taal",
				"invalidUsernamePassword": "Uw wachtwoord of e-mailadres is onjuist. Probeer opnieuw."
			},
			"forgotPassword": "Wachtwoord vergeten?",
			"keepLoggedIn": "Hou me aangemeld",
			"passwordLabel": "Wachtwoord",
			"resendConfirmationEmail": "Bevestigingse-mail nogmaals versturen",
			"siloMessage": {
				"eu": "Switch to the US App",
				"us": "Switch to the EU App"
			}
		},
		"pinpad": {
			"authInvalid": "De ingevoerde pincode was ongeldig",
			"authSuccess": "Pincode bevestigd",
			"pinRemoveFail": "Pincode kon niet verwijderd worden",
			"pinRemoved": "Pincode met succes verwijderd",
			"setFail": "Pincode kon niet ingesteld worden",
			"setSuccess": "Pincode met succes ingesteld"
		},
		"resetPassword": {
			"changeFailed": "De poging om uw wachtwoord te wijzigen is niet gelukt",
			"requestNewToken": "Vraag een ander token aan via 'Wachtwoord vergeten?'",
			"title": "Wachtwoord wijzigen is niet gelukt.",
			"tokensExpire": "Een token vervalt na 6 uur",
			"tryAgain": "Probeer opnieuw als een typefout werd gemaakt bij het token"
		},
		"sendConfirmationEmail": {
			"backToSignInLinkLabel": "Terug naar aanmelden",
			"button": "Bevestigingse-mail nogmaals versturen",
			"message": "Accountbevestiging"
		},
		"signInWithToken": {
			"button": "Aangesloten apparaat",
			"error": {
				"invalidToken": "aanmelden.aanmeldenmettoken.foutmelding.ongeldigtoken"
			},
			"inputLabel": "Activatiecode",
			"message": "Dit mobiele apparaat op uw account aansluiten"
		},
		"welcome": {
			"accountLink": "Aanmelden",
			"accountMessage": "Hebt u al een account?",
			"button": "Inschrijven",
			"message": "Begin."
		}
	},
	"messageCenter": {
		"alerts": {
			"alarmSounding": "Het alarm gaat nu af",
			"alert": "Melding",
			"criteria": "Meldingscriteria",
			"currentStatus": "Huidige status",
			"dateTime": "Datum en tijd",
			"details": "Details",
			"equipment": "Apparatuur ",
			"subHeader": "Meldingen lorem ipsum dolor sit amet alipsis diam.",
			"title": "Meldingen"
		},
		"notifications": {
			"subHeader": "Notificaties in de afgelopen 90 dagen",
			"title": "Notificaties"
		},
		"title": "Berichtencentrum"
	},
	"missingKey": "##############################",
	"myStatus": {
		"addNewGateway": "Nieuwe gateway toevoegen",
		"addNewStatus": "Nieuwe status toevoegen",
		"makeNewStatus": {
			"createNewOneTouch": "Nieuwe OneTouch voor deze status aanmaken",
			"delete": "Status verwijderen",
			"deleteWarning": "Deze status verwijderen?",
			"editName": {
				"name": "Naam"
			},
			"invalidGateway": "U gebruikt een ongeldige gateway. Wijzig uw gateway of voeg een nieuwe, geldige, gateway toe.",
			"ruleView": {
				"run": "Draai als status begint"
			}
		},
		"newStatus": {
			"createStatusTitle": "Nieuwe status aanmaken",
			"formFields": {
				"continue": "Doorgaan",
				"statusName": "Naam status"
			},
			"giveStatusName": "Geef deze status een naam",
			"selectIcon": "Selecteer een icoon voor uw status",
			"selectIconInstructions1": "Kies een icoon van uw IT600 en regel uw status vanuit de IT600 of via de app.",
			"selectIconInstructions2": "Kies een ander icoon om uw status via de app te regelen.",
			"showLessIcons": "Toon minder iconen",
			"showMoreIcons": "Toon meer iconen"
		},
		"newStatusAdded": "Nieuwe status toegevoegd",
		"noGatewayMessage": "Geen gateway gevonden. Voeg gateway toe.",
		"title": "Mijn status"
	},
	"schedules": {
		"deviceTypes": {
			"smartPlug": "smart plugs",
			"thermostat": "thermostaten",
			"waterHeater": "boilers"
		},
		"edit": {
			"changeIndividualThermostat": {
				"no": "Nee, alleen deze",
				"subtitle": "Wilt u deze wijziging voor alle thermostaten van hetzelfde model doorvoeren?",
				"title": "U gaat een instelling voor één thermostaat wijzigen.",
				"yes": "Ja, wijzig elk apparaat van dit model"
			},
			"changeSingleControl": {
				"changeGroup": {
					"no": "Nee, nu niet",
					"subtitle": "Weet u zeker dat u dit nu wilt doen?",
					"title": "U gaat de instellingen van alle thermostaten in uw universele regelaar wijzigen",
					"yes": "Ja, wijziging doorvoeren"
				},
				"changeSingle": {
					"changeJustThermostat": "Alleen deze wijzigen",
					"changeSingleControl": "Alle thermostaten in universele regelaar wijzigen",
					"subtitle": "Wilt u deze wijziging voor alle thermostaten in de universele regelaar uitvoeren?",
					"title": "U gaat de instellingen van een van de thermostaten in uw universele regelaar wijzigen"
				}
			},
			"modal": {
				"addNew": "Een nieuwe universele regelaar toevoegen",
				"deleteLabel": "Universele regelaar verwijderen",
				"duplicateTstatsErrorBody": "Zorg ervoor dat een thermostaat niet in meerdere universele regelaars voorkomt en dat alle universele regelaars een naam hebben en minstens één geselecteerde thermostaat.",
				"duplicateTstatsErrorTitle": "Foutmelding: Eén of meerdere universele regelaars konden niet bewaard worden.",
				"emptyIndividualControls": "Geen individuele regelaars beschikbaar",
				"emptySingleControls": "Geen universele regelaars beschikbaar",
				"emptyThermostats": "Geen thermostaten beschikbaar",
				"individualLabel": "Individuele regelaars",
				"nameLabel": "Naam van de universele regelaar",
				"title": "Thermostaat universele regelaars bijwerken"
			},
			"previousScreen": "< Voorinstellingen schema",
			"thermostatList": {
				"emptyThermostats": "Geen beschikbare thermostaten of universele regelaars"
			},
			"thermostatSettings": {
				"addInterval": "Interval toevoegen",
				"apply": "Schema toepassen",
				"cancel": "Annuleren",
				"description": "Lorem ipsum dolor sit amet, in molestie sententiae pro, an qui sint iuvaret officiis. Aperiri equidem ea vis, eam natum affert vituperata ex, nec ne constituam philosophia.",
				"start": "BEGINTIJD",
				"temp": "TEMPERATUUR"
			}
		},
		"emptyView": {
			"message": "You have no __type__ on this gateway. Please add __type__ to set schedules for them."
		},
		"presets": {
			"description": "Er zijn drie voorinstellingen gebaseerd op dagelijkse omstandigheden. Kies een van de drie, of maar er zelf een aan.",
			"presetSchedules": {
				"createNew": {
					"description": "Stel uw eigen thermostaatschema's op, zodat uw huis werkt zoals u wilt.",
					"title": "Uw eigen schema aanmaken"
				},
				"mostlyAway": {
					"description": "Ontwikkeld voor mensen die meer weg dan thuis zijn.",
					"title": "Meestal weg"
				},
				"mostlyHome": {
					"description": "Voor mensen die meer thuis zijn dan weg.?",
					"title": "Meestal thuis"
				},
				"workingWeek": {
					"description": "Voor huizen waar doordeweeks tussen 09.00 en 18.00 niemand is, en iedereen in het weekend thuis is.",
					"title": "Traditionele werkweek"
				}
			},
			"title": "Kies een vooraf ingesteld schema of maak er zelf een aan"
		},
		"schedule": {
			"addInterval": "Interval toevoegen",
			"columnLabels": {
				"mode": "SYSTEM MODE",
				"startTime": "BEGINTIJD",
				"temperature": "TEMPERATUUR"
			},
			"deleteInterval": "Interval verwijderen",
			"newInterval": {
				"add": "Toevoegen",
				"mode": {
					"cool": "Koelen",
					"heat": "Verwarmen",
					"off": "Uit",
					"on": "Aan",
					"title": "Modus:"
				},
				"startTime": "Begintijd",
				"temperature": "Temperatuur",
				"temperatureError": "Temperatuur is ongeldig. Voer een getal in tussen __floor__ en __ceiling__. Decimale cijfers moeten op 0 of 5 eindigen",
				"timeError": "De ingevoerde tijd is ongeldig. Voer een tijd in volgens het hh:mm format",
				"title": "Nieuw interval toevoegen",
				"update": "Bijwerken"
			},
			"noIntervals": "Dit schema bevat geen intervals.",
			"weekConfigurations": {
				"MO-FR": "MA-VR",
				"MO-SU": "MA-ZO",
				"SA-SU": "ZA-ZO"
			},
			"weekDropdown": {
				"daily": "Dagelijks",
				"fullWeek": "Meestal thuis / MA-ZO",
				"workWeek": "Werkweek / MA-VR en ZA+ZO"
			}
		},
		"smartPlug": {
			"title": "Smart Plug schema"
		},
		"thermostat": {
			"duplicateSchedule": {
				"description": "Voor welke thermosta(a)t(en) wilt u dit schema dupliceren?",
				"duplicate": "Dupliceren",
				"error": "Een schema zonder invoeren kan niet gedupliceerd worden. Zorg ervoor dat uw schema bewaard is",
				"title": "Schema dupliceren"
			},
			"instructions": "Selecteer het soort schema dat u wilt aanmaken voor deze universele regelaar",
			"selectionTitle": "Kies een schemaconfiguratie",
			"subtitle": "Uw eigen schema aanmaken",
			"title": "Thermostaatschema"
		},
		"waterHeater": {
			"title": "Boiler-schema"
		}
	},
	"settings": {
		"about": {
			"buildDateTitle": "Datum gebouwd",
			"companyName": "Salus Controls Inc.",
			"companyTitle": "Bedrijf",
			"copyrightFormatted": "© __currentYear__ Salus Controls Inc.",
			"releasedTitle": "Uitgebracht",
			"versionTitle": "Versie"
		},
		"dataCollection": {
			"options": {
				"off": "U kunt gegevensverzameling te allen tijde uitzetten. Op dat moment wordt de applicatie automatisch gedeactiveerd en de apparatuur of de service kan niet meer via uw mobiele apparaat of computer beheerd worden. U kunt uw apparatuur altijd handmatig beheren.  Raadpleeg de gebruikershandleiding voor instructies.",
				"on": "We raden aan de instelling op AAN te houden. De gegevens die van uw mobiele apparaat en apparatuur verzameld zijn, worden gebruikt om de applicatie en uw aangesloten services thuis te draaien, en om belangrijke meldingen en berichten te sturen.",
				"optionPrefix": "Gegevensverzameling is",
				"referUserGuide": "U kunt uw apparatuur altijd handmatig beheren.  Raadpleeg de gebruiksaanwijzing."
			},
			"subheader": "U hebt gegevensverzameling uitgezet. Daardoor is de applicatie gedeactiveerd. Zet gegevensverzameling AAN als u de applicatie wilt blijven gebruiken",
			"title": "Gegevensverzameling"
		},
		"manageDevices": {
			"devices": {
				"addShare": "Een mobiel apparaat koppelen",
				"deleteShareModal": "U gaat het volgende verwijderen",
				"deleteUser": "Gebruiker verwijderen",
				"description": "Deel uw SalusConnect-apparatuur met zoveel mensen als u wilt. U regelt wat uw gasten kunnen zien en waar ze toegang toe hebben.",
				"empty": "U hebt uw account niet met gasten gedeeld.",
				"formHeader": "Een mobiel apparaat koppelen",
				"formLabels": {
					"countrySelect": "Land",
					"deselectAll": "Alles deselecteren",
					"deviceListHeader": "Geef deze gast toegang tot:",
					"email": "E-mailadres",
					"emptyDevices": "Geen beschikbare apparaten",
					"firstName": "Voornaam",
					"lastName": "Achternaam",
					"name": "Naam voor dit apparaat",
					"selectAll": "Alles selecteren"
				},
				"header": "Account delen"
			},
			"gateway": {
				"addGateway": "Gateway toevoegen",
				"description": "",
				"empty": "Er zijn geen gateways gekoppeld.",
				"header": "Gateways"
			},
			"title": "Acocunt beheren"
		},
		"profile": {
			"changePassword": {
				"formFields": {
					"confirmPassword": "Wachtwoord bevestigen",
					"newPassword": "Nieuw wachtwoord",
					"oldPassword": "Oud wachtwoord"
				},
				"passwordRequirements": "Wachtwoorden bestaan uit 6 tot 14 karakters met minstens één cijfer (0-9) of symbool, één kleine letter (a-z), en één hoofdletter (A-Z).",
				"title": "Wachtwoord wijzigen"
			},
			"deleteProfile": "Gebruikersprofiel verwijderen",
			"deleteProfileErrorMsg": "Foutmelding bij verwijderen gebruikersprofiel. Probeer het later opnieuw.",
			"deleteProfileWarningLine1": "Uw gebruikersprofiel verwijderen?",
			"deleteProfileWarningLine2": "Deze handeling kan niet ongedaan gemaakt worden.",
			"formFields": {
				"email": "E-mailadres",
				"emailConfirm": "E-mailadres bevestigen",
				"firstName": "Voornaam",
				"languageSelect": "Taal",
				"lastName": "Achternaam",
				"submitButton": "Inzenden"
			},
			"title": "Profiel bewerken"
		}
	},
	"setupWizard": {
		"headline": "Welkom bij Salus!",
		"landing": {
			"createProfile": {
				"active": "Uw profiel is aangemaakt."
			},
			"equipmentConnect": {
				"button": "Apparatuur koppelen",
				"inactive": "Koppel nu uw apparatuur aan de gateway."
			},
			"equipmentShare": {
				"button": "Apparatuur delen",
				"inactive": "Deel uw apparatuur door uw familie en vrienden toegang te geven."
			},
			"gatewayConnect": {
				"active": "Uw gateway is nu geactiveerd en kan aan uw apparatuur gekoppeld worden.",
				"button": "Gateway activeren",
				"inactive": "Activeer uw gateway en ga uw apparaten gebruiken."
			},
			"header": {
				"connect": "Koppel de apparatuur aan de gateway.",
				"gateway": "Activeer uw gateway"
			},
			"subHeaderHtml": {
				"connect": "Gelukt! Uw profiel is aangemaakt en uw gateway is geactiveerd.<br/>Koppel nu uw apparaten en verbind uw apparatuur met de gateway.",
				"gateway": "Gelukt! Uw profiel is aangemaakt en uw gateway is geactiveerd."
			}
		},
		"newUserForm": {
			"cookieModal": {
				"information": "Cookies helpen met de juiste werking van de Salus website. We gebruiken ze alleen om aanmeldgegevens te onthouden en statistische gegevens te verzamelen om functionaliteit te optimaliseren. U kunt alleen verder door cookies te accepteren. Zie onze __privacy_policy__ voor meer informatie."
			},
			"equipment": "Hebt u de gateway?",
			"formFields": {
				"countrySelect": "Land",
				"email": "E-mailadres",
				"emailConfirm": "E-mailadres bevestigen",
				"firstName": "Voornaam",
				"languageSelect": "Taal",
				"lastName": "Achternaam",
				"password": "Wachtwoord",
				"passwordConfirm": "Wachtwoord bevestigen",
				"phone": "Telefoonnummer",
				"phoneType": "Type telefoon",
				"privacyPolicyLabel": "Ik accepteer Salus-regelaars",
				"privacyPolicyLinkLabel": "Privacybeleid",
				"submitButton": "Mijn profiel aanmaken",
				"termsAndConditionsLabel": "Ik accepteer Salus-regelaars",
				"termsAndConditionsLinkLabel": "Voorwaarden"
			},
			"header": "Installatie is gemakkelijk.",
			"passwordRequirements": "Wachtwoorden bestaan uit 6 tot 14 karakters met minstens één cijfer (0-9) of symbool, één kleine letter (a-z), en één hoofdletter (A-Z).",
			"phoneTypes": {
				"phone": "Telefoon",
				"tablet": "Tablet"
			},
			"subheader": "Uw profiel aanmaken",
			"tooltip": {
				"equipment": "Stuurt een signaal naar uw apparatuur, zodat u van afstand toegang hebt."
			}
		},
		"pairing": {
			"buttonText": "Scan voor apparatuur",
			"header": "Welkom! We gaan uw apparatuur koppelen",
			"noCoordinator": "Geen coördinatie",
			"paragraphHtml": "Zorg dat alle apparatuur aanstaat voor het koppelen van de apparatuur.<ol><li>Zoek eerst de knop op elk apparaat. Druk er nog niet op. Raadpleeg de gebruikershandleiding als u problemen hebt om de knop te vinden.</li><li>Klik vervolgens op de oranje knop \"Scan voor apparatuur\". Let op: na het indrukken van de knop \"Scan voor apparatuur\", hebt u maar twee minuten om op de knop van uw apparatuur uit Stap 1 te duwen. Houd die knop 3-5 seconden ingedrukt.</li><li>Herhaal het proces tot al uw apparaten hieronder voorkomen. Als, na herhaaldelijk uitvoeren, niet al uw apparaten verschijnen, neem dan contact op met Klantenservice.</li></ol>",
			"requiresCoordinator": "Voor apparaatvoorziening moet een coördinatie-apparaat  geregistreerd zijn bij de gateway.  Probeer de gateway opnieuw te registreren."
		},
		"provisioning": {
			"customize": {
				"access": "Toegang",
				"accessInfo": "Wilt u dat iemand anders toegang heeft tot deze apparatuur? Zo ja, hieronder selecteren.",
				"clampsError": "U moet 3 klemmen selecteren.",
				"clampsReading": "Selecteer de klemmen  die u gebruikt",
				"completeSetup": "Installatie voltooien",
				"continueSetupEquipment": "Ga verder met het installeren van apparaten",
				"energyMonitor": "Instelling energiemonitor voor het hele huis",
				"noShares": "Momenteel geen gedeelde gebruikers. Na installatie kunt u uw apparatuur delen.",
				"oneTouch": "OneTouch",
				"oneTouchInfo": "Met OneTouch kunt u met een eenvoudig tikje een of meerdere apparaten bedienen en/of meldingen aanmaken. Er zijn vooraf geselecteerde opties die van pas kunnen komen. U kunt OneTouch deselecteren of een andere kiezen indien u ze niet wilt gebruiken. U kunt op een later tijdstip wijzigen aanbrengen in OneTouch.",
				"oneTouchPreselected": "We hebben vooraf geselecteerde opties die handig kunnen zijn voor u. Gebruikt u liever andere opties, deactiveer OneTouch of kies een andere. U kunt op een later tijdstip veranderingen in OneTouch aanbrengen.",
				"phasesReading": "Hoeveel fases?",
				"pin": "Wilt u dit apparaat vastpinnen aan uw dashboard?",
				"pinHeader": "Vastpinnen",
				"pinInfo": "Pin uw belangrijkste artikelen vast aan het dashboard voor snelle en gemakkelijke toegang.",
				"selectAnother": "Selecteer het volgende apparaat.",
				"selectPhases": "Selecteer fases",
				"selectVoltage": "Selecteer voltage",
				"selectWhich": "Kies het apparaat waarmee u wilt beginnen.",
				"setupEquipment": "We installeren uw apparaten",
				"success": {
					"mobile": {
						"description": "Zoekt u naar het gemak van een app? U kunt onze app voor uw apparaten downloaden. Verkrijgbaar op iTunes of GooglePlay.",
						"link": "App downloaden",
						"title": "De mobiele app"
					},
					"myDashboard": {
						"description": "Bezoek uw nieuwe dashboard. Bekijk en beheer uw apparatuur in één oogopslag voor probleemloos thuisbeheer op één scherm. Later kunt u meer apparaten van het dashboard toevoegen.",
						"link": "Ga naar mijn dashboard",
						"title": "Mijn dashboard"
					},
					"title": "Gelukt!\nDe installatie is voltooid."
				},
				"successfullySetup": "Gelukt! De installatie is voltooid.",
				"voltageReading": "Wat is het voltage?"
			},
			"naming": {
				"nowConnected": "Onderstaande apparatuur is nu op uw gateway aangesloten. Geef uw apparatuur een naam",
				"success": "Gelukt!",
				"textbox": "Geef deze apparatuur een naam (bijv. Thermostaat slaapkamer)"
			},
			"select": {
				"connect": "Apparatuur koppelen",
				"currentlyScanning": "Scannen voor apparaten...",
				"letsConnect": "We gaan uw apparatuur koppelen",
				"notFound": "Sorry, er zijn geen apparaten gevonden",
				"select": "Vink het hokje aan naast de apparatuur die u wilt koppelen. Klik op \"Apparatuur koppelen\".",
				"selectError": "Kies minstens een apparaat alvorens verder te gaan"
			}
		},
		"subheader": "Aangezien u een nieuwe gebruiker bent, is het nodig om enkele stappen te doorlopen om uw account en apparatuur te beheren.<br/>Begin met het opzetten van uw nieuwe systeem."
	}
}							
